Data_visualization_20191002_717_oh
…
Has income inequality across countries worsened during the last 40 years?

To answer these questions, we will be using the gapminder dataset provided in dslabs. This dataset was created using a number of spreadsheets available from the Gapminder Foundation. You can access the table like this:

library(tidyverse)
library(ggrepel)
library(dslabs)
data(gapminder)
class(gapminder)

## [1] "data.frame"

gapminder %>% as_tibble()

## # A tibble: 10,545 x 9
##    country  year infant_mortality life_expectancy fertility population
##    <fct>   <int>            <dbl>           <dbl>     <dbl>      <dbl>
##  1 Albania  1960            115.             62.9      6.19    1636054
##  2 Algeria  1960            148.             47.5      7.65   11124892
##  3 Angola   1960            208              36.0      7.32    5270844
##  4 Antigu~  1960             NA              63.0      4.43      54681
##  5 Argent~  1960             59.9            65.4      3.11   20619075
##  6 Armenia  1960             NA              66.9      4.55    1867396
##  7 Aruba    1960             NA              65.7      4.82      54208
##  8 Austra~  1960             20.3            70.9      3.45   10292328
##  9 Austria  1960             37.3            68.8      2.7     7065525
## 10 Azerba~  1960             NA              61.3      5.57    3897889
## # ... with 10,535 more rows, and 3 more variables: gdp <dbl>,
## #   continent <fct>, region <fct>
…
